Lab9/m.vcd
$date
	Mon Oct 23 13:31:54 2017
$end
$version
	Icarus Verilog
$end
$timescale
	1s
$end
$scope module test $end
$var wire 32 ! PC [31:0] $end
$var reg 1 " clk $end
$var reg 1 # done $end
$var integer 32 $ i [31:0] $end
$var reg 1 % reset $end
$scope module m $end
$var wire 3 & ALUOp [2:0] $end
$var wire 1 ' ALUSrc $end
$var wire 1 ( BEQ $end
$var wire 32 ) B_data [31:0] $end
$var wire 1 * ERET $end
$var wire 1 + MFC0 $end
$var wire 1 , MTC0 $end
$var wire 1 - MemRead $end
$var wire 1 . MemToReg $end
$var wire 1 / MemWrite $end
$var wire 32 0 PC [31:0] $end
$var wire 1 1 PCSrc $end
$var wire 30 2 PC_plus4 [31:2] $end
$var wire 30 3 PC_target [31:2] $end
$var wire 1 4 RegDst $end
$var wire 1 5 RegWrite $end
$var wire 32 6 alu_out_data [31:0] $end
$var wire 1 7 clk $end
$var wire 32 8 imm [31:0] $end
$var wire 32 9 inst [31:0] $end
$var wire 32 : load_data [31:0] $end
$var wire 1 ; negative $end
$var wire 30 < next_PC [31:2] $end
$var wire 5 = rd [4:0] $end
$var wire 32 > rd1_data [31:0] $end
$var wire 32 ? rd2_data [31:0] $end
$var wire 1 @ reset $end
$var wire 5 A rs [4:0] $end
$var wire 5 B rt [4:0] $end
$var wire 32 C wr_data [31:0] $end
$var wire 5 D wr_regnum [4:0] $end
$var wire 1 E zero $end
$scope module PC_reg $end
$var wire 1 7 clk $end
$var wire 30 F d [29:0] $end
$var wire 1 G enable $end
$var wire 1 @ reset $end
$var reg 30 H q [29:0] $end
$upscope $end
$scope module next_PC_adder $end
$var wire 30 I in1 [29:0] $end
$var wire 30 J in2 [29:0] $end
$var wire 30 K out [29:0] $end
$upscope $end
$scope module target_PC_adder $end
$var wire 30 L in1 [29:0] $end
$var wire 30 M in2 [29:0] $end
$var wire 30 N out [29:0] $end
$upscope $end
$scope module branch_mux $end
$var wire 30 O A [29:0] $end
$var wire 30 P B [29:0] $end
$var wire 30 Q out [29:0] $end
$var wire 1 1 sel $end
$var wire 30 R temp1 [29:0] $end
$var wire 30 S temp2 [29:0] $end
$upscope $end
$scope module imem $end
$var wire 30 T addr [29:0] $end
$var wire 32 U data [31:0] $end
$var wire 32 V kdata [31:0] $end
$var wire 32 W tdata [31:0] $end
$var reg 32 X i [31:0] $end
$upscope $end
$scope module decode $end
$var wire 3 Y ALUOp [2:0] $end
$var wire 1 ' ALUSrc $end
$var wire 1 ( BEQ $end
$var wire 1 * ERET $end
$var wire 1 + MFC0 $end
$var wire 1 , MTC0 $end
$var wire 1 - MemRead $end
$var wire 1 . MemToReg $end
$var wire 1 / MemWrite $end
$var wire 1 4 RegDst $end
$var wire 1 5 RegWrite $end
$var wire 1 Z co $end
$var wire 6 [ funct [5:0] $end
$var wire 32 \ inst [31:0] $end
$var wire 1 ] nop $end
$var wire 1 ^ op0 $end
$var wire 6 _ opcode [5:0] $end
$var wire 5 ` rs [4:0] $end
$upscope $end
$scope module rf $end
$var wire 1 7 clock $end
$var wire 32 a internal_rdData [31:0] $end
$var wire 32 b rdData [31:0] $end
$var wire 5 c rdNum [4:0] $end
$var wire 1 5 rdWriteEnable $end
$var wire 1 @ reset $end
$var wire 32 d rsData [31:0] $end
$var wire 5 e rsNum [4:0] $end
$var wire 32 f rtData [31:0] $end
$var wire 5 g rtNum [4:0] $end
$var integer 32 h i [31:0] $end
$upscope $end
$scope module imm_mux $end
$var wire 32 i A [31:0] $end
$var wire 32 j B [31:0] $end
$var wire 32 k out [31:0] $end
$var wire 1 ' sel $end
$var wire 32 l temp1 [31:0] $end
$var wire 32 m temp2 [31:0] $end
$upscope $end
$scope module alu $end
$var wire 3 n control [2:0] $end
$var wire 32 o inA [31:0] $end
$var wire 32 p inB [31:0] $end
$var wire 1 ; negative $end
$var wire 32 q out [31:0] $end
$var wire 1 E zero $end
$upscope $end
$scope module data_memory $end
$var wire 32 r addr [31:0] $end
$var wire 1 7 clk $end
$var wire 32 s d_out [31:0] $end
$var wire 32 t data_in [31:0] $end
$var wire 32 u data_out [31:0] $end
$var wire 19 v index [18:0] $end
$var wire 1 - mem_read $end
$var wire 1 / mem_write $end
$var wire 1 @ reset $end
$var integer 32 w i [31:0] $end
$scope module t $end
$var wire 1 - control $end
$var wire 32 x d [31:0] $end
$var wire 32 y o [31:0] $end
$upscope $end
$upscope $end
$scope module wb_mux $end
$var wire 32 z A [31:0] $end
$var wire 32 { B [31:0] $end
$var wire 32 | out [31:0] $end
$var wire 1 . sel $end
$var wire 32 } temp1 [31:0] $end
$var wire 32 ~ temp2 [31:0] $end
$upscope $end
$scope module rd_mux $end
$var wire 5 !" A [4:0] $end
$var wire 5 "" B [4:0] $end
$var wire 5 #" out [4:0] $end
$var wire 1 4 sel $end
$var wire 5 $" temp1 [4:0] $end
$var wire 5 %" temp2 [4:0] $end
$upscope $end
$upscope $end
$upscope $end
$scope module test $end
$scope module m $end
$scope module rf $end
$var reg 32 &" \r[0] [31:0] $end
$upscope $end
$upscope $end
$upscope $end
$scope module test $end
$scope module m $end
$scope module rf $end
$var reg 32 '" \r[1] [31:0] $end
$upscope $end
$upscope $end
$upscope $end
$scope module test $end
$scope module m $end
$scope module rf $end
$var reg 32 (" \r[2] [31:0] $end
$upscope $end
$upscope $end
$upscope $end
$scope module test $end
$scope module m $end
$scope module rf $end
$var reg 32 )" \r[3] [31:0] $end
$upscope $end
$upscope $end
$upscope $end
$scope module test $end
$scope module m $end
$scope module rf $end
$var reg 32 *" \r[4] [31:0] $end
$upscope $end
$upscope $end
$upscope $end
$scope module test $end
$scope module m $end
$scope module rf $end
$var reg 32 +" \r[5] [31:0] $end
$upscope $end
$upscope $end
$upscope $end
$scope module test $end
$scope module m $end
$scope module rf $end
$var reg 32 ," \r[6] [31:0] $end
$upscope $end
$upscope $end
$upscope $end
$scope module test $end
$scope module m $end
$scope module rf $end
$var reg 32 -" \r[7] [31:0] $end
$upscope $end
$upscope $end
$upscope $end
$scope module test $end
$scope module m $end
$scope module rf $end
$var reg 32 ." \r[8] [31:0] $end
$upscope $end
$upscope $end
$upscope $end
$scope module test $end
$scope module m $end
$scope module rf $end
$var reg 32 /" \r[9] [31:0] $end
$upscope $end
$upscope $end
$upscope $end
$scope module test $end
$scope module m $end
$scope module rf $end
$var reg 32 0" \r[10] [31:0] $end
$upscope $end
$upscope $end
$upscope $end
$scope module test $end
$scope module m $end
$scope module rf $end
$var reg 32 1" \r[11] [31:0] $end
$upscope $end
$upscope $end
$upscope $end
$scope module test $end
$scope module m $end
$scope module rf $end
$var reg 32 2" \r[12] [31:0] $end
$upscope $end
$upscope $end
$upscope $end
$scope module test $end
$scope module m $end
$scope module rf $end
$var reg 32 3" \r[13] [31:0] $end
$upscope $end
$upscope $end
$upscope $end
$scope module test $end
$scope module m $end
$scope module rf $end
$var reg 32 4" \r[14] [31:0] $end
$upscope $end
$upscope $end
$upscope $end
$scope module test $end
$scope module m $end
$scope module rf $end
$var reg 32 5" \r[15] [31:0] $end
$upscope $end
$upscope $end
$upscope $end
$scope module test $end
$scope module m $end
$scope module rf $end
$var reg 32 6" \r[16] [31:0] $end
$upscope $end
$upscope $end
$upscope $end
$scope module test $end
$scope module m $end
$scope module rf $end
$var reg 32 7" \r[17] [31:0] $end
$upscope $end
$upscope $end
$upscope $end
$scope module test $end
$scope module m $end
$scope module rf $end
$var reg 32 8" \r[18] [31:0] $end
$upscope $end
$upscope $end
$upscope $end
$scope module test $end
$scope module m $end
$scope module rf $end
$var reg 32 9" \r[19] [31:0] $end
$upscope $end
$upscope $end
$upscope $end
$scope module test $end
$scope module m $end
$scope module rf $end
$var reg 32 :" \r[20] [31:0] $end
$upscope $end
$upscope $end
$upscope $end
$scope module test $end
$scope module m $end
$scope module rf $end
$var reg 32 ;" \r[21] [31:0] $end
$upscope $end
$upscope $end
$upscope $end
$scope module test $end
$scope module m $end
$scope module rf $end
$var reg 32 <" \r[22] [31:0] $end
$upscope $end
$upscope $end
$upscope $end
$scope module test $end
$scope module m $end
$scope module rf $end
$var reg 32 =" \r[23] [31:0] $end
$upscope $end
$upscope $end
$upscope $end
$scope module test $end
$scope module m $end
$scope module rf $end
$var reg 32 >" \r[24] [31:0] $end
$upscope $end
$upscope $end
$upscope $end
$scope module test $end
$scope module m $end
$scope module rf $end
$var reg 32 ?" \r[25] [31:0] $end
$upscope $end
$upscope $end
$upscope $end
$scope module test $end
$scope module m $end
$scope module rf $end
$var reg 32 @" \r[26] [31:0] $end
$upscope $end
$upscope $end
$upscope $end
$scope module test $end
$scope module m $end
$scope module rf $end
$var reg 32 A" \r[27] [31:0] $end
$upscope $end
$upscope $end
$upscope $end
$scope module test $end
$scope module m $end
$scope module rf $end
$var reg 32 B" \r[28] [31:0] $end
$upscope $end
$upscope $end
$upscope $end
$scope module test $end
$scope module m $end
$scope module rf $end
$var reg 32 C" \r[29] [31:0] $end
$upscope $end
$upscope $end
$upscope $end
$scope module test $end
$scope module m $end
$scope module rf $end
$var reg 32 D" \r[30] [31:0] $end
$upscope $end
$upscope $end
$upscope $end
$scope module test $end
$scope module m $end
$scope module rf $end
$var reg 32 E" \r[31] [31:0] $end
$upscope $end
$upscope $end
$upscope $end
$enddefinitions $end
#0
$dumpvars
b10000000000010000000000000000 E"
b10000000000010000000000000000 D"
b10000000000010000000000000000 C"
b10000000000010000000000000000 B"
b10000000000010000000000000000 A"
b10000000000010000000000000000 @"
b10000000000010000000000000000 ?"
b10000000000010000000000000000 >"
b10000000000010000000000000000 ="
b10000000000010000000000000000 <"
b10000000000010000000000000000 ;"
b10000000000010000000000000000 :"
b10000000000010000000000000000 9"
b10000000000010000000000000000 8"
b10000000000010000000000000000 7"
b10000000000010000000000000000 6"
b10000000000010000000000000000 5"
b10000000000010000000000000000 4"
b10000000000010000000000000000 3"
b10000000000010000000000000000 2"
b10000000000010000000000000000 1"
b10000000000010000000000000000 0"
b10000000000010000000000000000 /"
b10000000000010000000000000000 ."
b10000000000010000000000000000 -"
b10000000000010000000000000000 ,"
b10000000000010000000000000000 +"
b10000000000010000000000000000 *"
b10000000000010000000000000000 )"
b10000000000010000000000000000 ("
b10000000000010000000000000000 '"
b0 &"
bx %"
bx $"
bx #"
bx ""
bx !"
bx ~
bx }
bx |
bx {
bx z
bx y
bx x
b1000000000000000000 w
bx v
bx u
bx t
bx s
bx r
bx q
bx p
bx o
bx n
bx m
bx l
bx k
bx j
bx i
b100000 h
bx g
bx f
bx e
bx d
bx c
bx b
bx a
bx `
bx _
x^
x]
bx \
bx [
xZ
bx Y
b100000000 X
bx W
bx V
bx U
bx T
bx S
bx R
bx Q
bx P
bx O
bx N
bx M
bx L
bx K
b1 J
bx I
bx H
1G
bx F
xE
bx D
bx C
bx B
bx A
1@
bx ?
bx >
bx =
bx <
x;
bx :
bx 9
bx 8
07
bx 6
x5
x4
bx 3
bx 2
x1
bx00 0
x/
x.
x-
x,
x+
x*
bx )
x(
x'
bx &
1%
b100000 $
0#
0"
bx00 !
$end
#5
b1000000000000001 a
b1000000000000001 C
b1000000000000001 b
b1000000000000001 |
b1000000000000001 ~
b1000000000000001 :
b1000000000000001 u
b1000000000000001 y
b1000000000000001 {
b1000000000000001 s
b1000000000000001 x
0E
b100000000000000 v
0;
b10000000000010000000000000000 6
b10000000000010000000000000000 q
b10000000000010000000000000000 r
b10000000000010000000000000000 z
b0 &
b0 Y
b0 n
15
b100000000000000000001 <
b100000000000000000001 F
b100000000000000000001 Q
04
b10 D
b10 c
b10 #"
b0 S
b0 )
b0 k
b0 p
01
b0 }
1'
0*
0]
0+
0,
b0 %"
b0 l
b10 $"
b0 M
b100000000000000000001 3
b100000000000000000001 N
b100000000000000000001 P
b0 m
0(
1.
1-
0/
0^
b100011 _
b0 [
b10100 `
1Z
b0 =
b0 ""
b10000000000010000000000000000 ?
b10000000000010000000000000000 f
b10000000000010000000000000000 i
b10000000000010000000000000000 t
b10 B
b10 g
b10 !"
b10000000000010000000000000000 >
b10000000000010000000000000000 d
b10000000000010000000000000000 o
b10100 A
b10100 e
b0 8
b0 j
b10001110100000100000000000000000 9
b10001110100000100000000000000000 U
b10001110100000100000000000000000 \
b100000000000000000001 R
b10001110100000100000000000000000 W
b0 V
b100000000000000000000 I
b100000000000000000001 2
b100000000000000000001 K
b100000000000000000001 L
b100000000000000000001 O
b100000000000000000000 T
b100000000000000000000 H
b10000000000000000000000 0
b10000000000000000000000 !
1"
17
#7
0%
0@
#10
0"
07
#15
b11011110101011011011111011101111 s
b11011110101011011011111011101111 x
b110000000000000 v
05
b10000000000011000000000000001 6
b10000000000011000000000000001 q
b10000000000011000000000000001 r
b10000000000011000000000000001 z
b1100 D
b1100 c
b1100 #"
b0 $"
b1100 %"
14
b10000000000011000000000000001 a
b10000000000011000000000000001 C
b10000000000011000000000000001 b
b10000000000011000000000000001 |
b1000000000000001 l
b1000000000000001 )
b1000000000000001 k
b1000000000000001 p
bz :
bz u
bz y
bz {
b10000000000011000000000000001 }
b0 ~
0'
1,
b110000000000000 M
b0 m
0.
0-
b10000 _
b100 `
0Z
b1100 =
b1100 ""
b100 A
b100 e
b110000000000000 8
b110000000000000 j
b100000000000000000010 <
b100000000000000000010 F
b100000000000000000010 Q
b1000000100000100110000000000000 9
b1000000100000100110000000000000 U
b1000000100000100110000000000000 \
b100000000000000000010 R
b1000000100000100110000000000000 W
b100000000000000000001 I
b100000110000000000010 3
b100000110000000000010 N
b100000110000000000010 P
b100000000000000000010 2
b100000000000000000010 K
b100000000000000000010 L
b100000000000000000010 O
b100000000000000000001 T
b1000000000000001 ("
b1000000000000001 ?
b1000000000000001 f
b1000000000000001 i
b1000000000000001 t
b100000000000000000001 H
b10000000000000000000100 0
b10000000000000000000100 !
1"
17
#20
0"
07
#25
b11111111111111110000000000011100 s
b11111111111111110000000000011100 x
b100000000000001 v
15
b10000000000010000000000000100 6
b10000000000010000000000000100 q
b10000000000010000000000000100 r
b10000000000010000000000000100 z
b11 $"
04
b11111111111111110000000000011100 a
b11111111111111110000000000011100 C
b11111111111111110000000000011100 b
b11111111111111110000000000011100 |
b100 m
b11 D
b11 c
b11 #"
b100 )
b100 k
b100 p
b11111111111111110000000000011100 :
b11111111111111110000000000011100 u
b11111111111111110000000000011100 y
b11111111111111110000000000011100 {
b0 }
b11111111111111110000000000011100 ~
1'
0,
b0 %"
b0 l
b100 M
1.
1-
b100011 _
b100 [
b10100 `
1Z
b0 =
b0 ""
b10000000000010000000000000000 ?
b10000000000010000000000000000 f
b10000000000010000000000000000 i
b10000000000010000000000000000 t
b11 B
b11 g
b11 !"
b10100 A
b10100 e
b100 8
b100 j
b100000000000000000011 <
b100000000000000000011 F
b100000000000000000011 Q
b10001110100000110000000000000100 9
b10001110100000110000000000000100 U
b10001110100000110000000000000100 \
b100000000000000000011 R
b10001110100000110000000000000100 W
b100000000000000000010 I
b100000000000000000111 3
b100000000000000000111 N
b100000000000000000111 P
b100000000000000000011 2
b100000000000000000011 K
b100000000000000000011 L
b100000000000000000011 O
b100000000000000000010 T
b100000000000000000010 H
b10000000000000000001000 0
b10000000000000000001000 !
1"
17
#30
0"
07
#35
bx a
bx C
bx b
bx |
bx ~
bx :
bx u
bx y
bx {
bx s
bx x
b1111100000000000111 v
1;
b11111111111111110000000000011100 6
b11111111111111110000000000011100 q
b11111111111111110000000000011100 r
b11111111111111110000000000011100 z
b100 D
b100 c
b100 #"
b0 )
b0 k
b0 p
b100 $"
b0 M
b0 m
b0 [
b11 `
0Z
b100 B
b100 g
b100 !"
b11111111111111110000000000011100 >
b11111111111111110000000000011100 d
b11111111111111110000000000011100 o
b11 A
b11 e
b0 8
b0 j
b100000000000000000100 <
b100000000000000000100 F
b100000000000000000100 Q
b10001100011001000000000000000000 9
b10001100011001000000000000000000 U
b10001100011001000000000000000000 \
b100000000000000000100 R
b10001100011001000000000000000000 W
b100000000000000000011 I
b100000000000000000100 3
b100000000000000000100 N
b100000000000000000100 P
b100000000000000000100 2
b100000000000000000100 K
b100000000000000000100 L
b100000000000000000100 O
b100000000000000000011 T
b11111111111111110000000000011100 )"
b10000000000010000000000000000 ?
b10000000000010000000000000000 f
b10000000000010000000000000000 i
b10000000000010000000000000000 t
b100000000000000000011 H
b10000000000000000001100 0
b10000000000000000001100 !
1"
17
#40
0"
07
#45
b1000 a
b1000 C
b1000 b
b1000 |
b1000 ~
b1000 :
b1000 u
b1000 y
b1000 {
b1000 s
b1000 x
b100000000000010 v
0;
b10000000000010000000000001000 6
b10000000000010000000000001000 q
b10000000000010000000000001000 r
b10000000000010000000000001000 z
b101 D
b101 c
b101 #"
b1000 )
b1000 k
b1000 p
b101 $"
b1000 M
b1000 m
b1000 [
b10100 `
1Z
b101 B
b101 g
b101 !"
b10000000000010000000000000000 >
b10000000000010000000000000000 d
b10000000000010000000000000000 o
b10100 A
b10100 e
b1000 8
b1000 j
b100000000000000000101 <
b100000000000000000101 F
b100000000000000000101 Q
b10001110100001010000000000001000 9
b10001110100001010000000000001000 U
b10001110100001010000000000001000 \
b100000000000000000101 R
b10001110100001010000000000001000 W
b100000000000000000100 I
b100000000000000001101 3
b100000000000000001101 N
b100000000000000001101 P
b100000000000000000101 2
b100000000000000000101 K
b100000000000000000101 L
b100000000000000000101 O
b100000000000000000100 T
b100000000000000000100 H
b10000000000000000010000 0
b10000000000000000010000 !
bx *"
b10000000000010000000000000000 ?
b10000000000010000000000000000 f
b10000000000010000000000000000 i
b10000000000010000000000000000 t
1"
17
#50
0"
07
#55
x;
xE
bx s
bx x
bx v
b110 %"
bx 6
bx q
bx r
bx z
14
bx a
bx C
bx b
bx |
bx l
b110 D
b110 c
b110 #"
bx )
bx k
bx p
bz :
bz u
bz y
bz {
bx }
b0 ~
0'
b0 $"
b11000000100000 M
b0 m
0.
0-
1^
b0 _
b100000 [
b101 `
0Z
b110 =
b110 ""
b100 B
b100 g
b100 !"
b1000 >
b1000 d
b1000 o
b101 A
b101 e
b11000000100000 8
b11000000100000 j
b100000000000000000110 <
b100000000000000000110 F
b100000000000000000110 Q
b101001000011000000100000 9
b101001000011000000100000 U
b101001000011000000100000 \
b100000000000000000110 R
b101001000011000000100000 W
b100000000000000000101 I
b100000011000000100110 3
b100000011000000100110 N
b100000011000000100110 P
b100000000000000000110 2
b100000000000000000110 K
b100000000000000000110 L
b100000000000000000110 O
b100000000000000000101 T
b1000 +"
bx ?
bx f
bx i
bx t
b100000000000000000101 H
b10000000000000000010100 0
b10000000000000000010100 !
1"
17
#60
0"
07
#65
b1111100000000000111 v
b11111111111111110000000000011100 a
b11111111111111110000000000011100 C
b11111111111111110000000000011100 b
b11111111111111110000000000011100 |
1;
b11111111111111110000000000011100 }
0E
b11111111111111110000000000011100 6
b11111111111111110000000000011100 q
b11111111111111110000000000011100 r
b11111111111111110000000000011100 z
05
b0 )
b0 k
b0 p
b0 l
b0 D
b0 c
b0 #"
1'
b0 %"
b0 M
1/
0^
b101011 _
b0 [
b11 `
b0 =
b0 ""
b110 B
b110 g
b110 !"
b11111111111111110000000000011100 >
b11111111111111110000000000011100 d
b11111111111111110000000000011100 o
b11 A
b11 e
b0 8
b0 j
b100000000000000000111 <
b100000000000000000111 F
b100000000000000000111 Q
b10101100011001100000000000000000 9
b10101100011001100000000000000000 U
b10101100011001100000000000000000 \
b100000000000000000111 R
b10101100011001100000000000000000 W
b100000000000000000110 I
b100000000000000000111 3
b100000000000000000111 N
b100000000000000000111 P
b100000000000000000111 2
b100000000000000000111 K
b100000000000000000111 L
b100000000000000000111 O
b100000000000000000110 T
b100000000000000000110 H
b10000000000000000011000 0
b10000000000000000011000 !
bx ,"
1"
17
#70
0"
07
#75
b1 s
b1 x
15
b100000000000100 v
b1 D
b1 c
b1 #"
0;
b1 $"
b10000000000010000000000010000 6
b10000000000010000000000010000 q
b10000000000010000000000010000 r
b10000000000010000000000010000 z
04
b1 a
b1 C
b1 b
b1 |
b10000 )
b10000 k
b10000 p
b1 :
b1 u
b1 y
b1 {
b0 }
b1 ~
b10000 M
b10000 m
1.
1-
0/
b100011 _
b10000 [
b10100 `
1Z
b10000000000010000000000000000 ?
b10000000000010000000000000000 f
b10000000000010000000000000000 i
b10000000000010000000000000000 t
b1 B
b1 g
b1 !"
b10000000000010000000000000000 >
b10000000000010000000000000000 d
b10000000000010000000000000000 o
b10100 A
b10100 e
b10000 8
b10000 j
b100000000000000001000 <
b100000000000000001000 F
b100000000000000001000 Q
b10001110100000010000000000010000 9
b10001110100000010000000000010000 U
b10001110100000010000000000010000 \
b100000000000000001000 R
b10001110100000010000000000010000 W
b100000000000000000111 I
b100000000000000011000 3
b100000000000000011000 N
b100000000000000011000 P
b100000000000000001000 2
b100000000000000001000 K
b100000000000000001000 L
b100000000000000001000 O
b100000000000000000111 T
b100000000000000000111 H
b10000000000000000011100 0
b10000000000000000011100 !
1"
17
#80
0"
07
#85
b111 a
b111 C
b111 b
b111 |
b111 ~
b111 :
b111 u
b111 y
b111 {
b111 s
b111 x
b100000000000101 v
b10000000000010000000000010100 6
b10000000000010000000000010100 q
b10000000000010000000000010100 r
b10000000000010000000000010100 z
b111 D
b111 c
b111 #"
b10100 )
b10100 k
b10100 p
b111 $"
b10100 M
b10100 m
b10100 [
b111 B
b111 g
b111 !"
b10100 8
b10100 j
b100000000000000001001 <
b100000000000000001001 F
b100000000000000001001 Q
b10001110100001110000000000010100 9
b10001110100001110000000000010100 U
b10001110100001110000000000010100 \
b100000000000000001001 R
b10001110100001110000000000010100 W
b100000000000000001000 I
b100000000000000011101 3
b100000000000000011101 N
b100000000000000011101 P
b100000000000000001001 2
b100000000000000001001 K
b100000000000000001001 L
b100000000000000001001 O
b100000000000000001000 T
b100000000000000001000 H
b10000000000000000100000 0
b10000000000000000100000 !
b1 '"
b10000000000010000000000000000 ?
b10000000000010000000000000000 f
b10000000000010000000000000000 i
b10000000000010000000000000000 t
1"
17
#90
0"
07
#95
b11011110101011011011111011101111 s
b11011110101011011011111011101111 x
b10 v
b1000 %"
b1000 6
b1000 q
b1000 r
b1000 z
14
b1000 a
b1000 C
b1000 b
b1000 |
b1 l
b1000 D
b1000 c
b1000 #"
b1 )
b1 k
b1 p
bz :
bz u
bz y
bz {
b1000 }
b0 ~
0'
b0 $"
b100000000100000 M
b0 m
0.
0-
1^
b0 _
b100000 [
b111 `
0Z
b1000 =
b1000 ""
b1 B
b1 g
b1 !"
b111 >
b111 d
b111 o
b111 A
b111 e
b100000000100000 8
b100000000100000 j
b100000000000000001010 <
b100000000000000001010 F
b100000000000000001010 Q
b111000010100000000100000 9
b111000010100000000100000 U
b111000010100000000100000 \
b100000000000000001010 R
b111000010100000000100000 W
b100000000000000001001 I
b100000100000000101010 3
b100000100000000101010 N
b100000100000000101010 P
b100000000000000001010 2
b100000000000000001010 K
b100000000000000001010 L
b100000000000000001010 O
b100000000000000001001 T
b111 -"
b1 ?
b1 f
b1 i
b1 t
b100000000000000001001 H
b10000000000000000100100 0
b10000000000000000100100 !
1"
17
#100
0"
07
#105
b1001 a
b1001 C
b1001 b
b1001 |
b1001 }
b1001 6
b1001 q
b1001 r
b1001 z
b1001 D
b1001 c
b1001 #"
b1001 %"
b100100000100000 M
b1000 `
b1001 =
b1001 ""
b1000 >
b1000 d
b1000 o
b1000 A
b1000 e
b100100000100000 8
b100100000100000 j
b100000000000000001011 <
b100000000000000001011 F
b100000000000000001011 Q
b1000000010100100000100000 9
b1000000010100100000100000 U
b1000000010100100000100000 \
b100000000000000001011 R
b1000000010100100000100000 W
b100000000000000001010 I
b100000100100000101011 3
b100000100100000101011 N
b100000100100000101011 P
b100000000000000001011 2
b100000000000000001011 K
b100000000000000001011 L
b100000000000000001011 O
b100000000000000001010 T
b100000000000000001010 H
b10000000000000000101000 0
b10000000000000000101000 !
b1000 ."
1"
17
#110
0"
07
#115
b1010 a
b1010 C
b1010 b
b1010 |
b1010 }
b1010 6
b1010 q
b1010 r
b1010 z
b1010 D
b1010 c
b1010 #"
b1010 %"
b101000000100000 M
b1001 `
b1010 =
b1010 ""
b1001 >
b1001 d
b1001 o
b1001 A
b1001 e
b101000000100000 8
b101000000100000 j
b100000000000000001100 <
b100000000000000001100 F
b100000000000000001100 Q
b1001000010101000000100000 9
b1001000010101000000100000 U
b1001000010101000000100000 \
b100000000000000001100 R
b1001000010101000000100000 W
b100000000000000001011 I
b100000101000000101100 3
b100000101000000101100 N
b100000101000000101100 P
b100000000000000001100 2
b100000000000000001100 K
b100000000000000001100 L
b100000000000000001100 O
b100000000000000001011 T
b1001 /"
b100000000000000001011 H
b10000000000000000101100 0
b10000000000000000101100 !
1"
17
#120
0"
07
#125
b1011 a
b1011 C
b1011 b
b1011 |
b1011 }
b1011 6
b1011 q
b1011 r
b1011 z
b1011 D
b1011 c
b1011 #"
b1011 %"
b101100000100000 M
b1010 `
b1011 =
b1011 ""
b1010 >
b1010 d
b1010 o
b1010 A
b1010 e
b101100000100000 8
b101100000100000 j
b100000000000000001101 <
b100000000000000001101 F
b100000000000000001101 Q
b1010000010101100000100000 9
b1010000010101100000100000 U
b1010000010101100000100000 \
b100000000000000001101 R
b1010000010101100000100000 W
b100000000000000001100 I
b100000101100000101101 3
b100000101100000101101 N
b100000101100000101101 P
b100000000000000001101 2
b100000000000000001101 K
b100000000000000001101 L
b100000000000000001101 O
b100000000000000001100 T
b100000000000000001100 H
b10000000000000000110000 0
b10000000000000000110000 !
b1010 0"
1"
17
#130
0"
07
#135
b11 v
b1100 a
b1100 C
b1100 b
b1100 |
b1100 }
b1100 6
b1100 q
b1100 r
b1100 z
b1100 D
b1100 c
b1100 #"
b1100 %"
b110000000100000 M
b1011 `
b1100 =
b1100 ""
b1011 >
b1011 d
b1011 o
b1011 A
b1011 e
b110000000100000 8
b110000000100000 j
b100000000000000001110 <
b100000000000000001110 F
b100000000000000001110 Q
b1011000010110000000100000 9
b1011000010110000000100000 U
b1011000010110000000100000 \
b100000000000000001110 R
b1011000010110000000100000 W
b100000000000000001101 I
b100000110000000101110 3
b100000110000000101110 N
b100000110000000101110 P
b100000000000000001110 2
b100000000000000001110 K
b100000000000000001110 L
b100000000000000001110 O
b100000000000000001101 T
b1011 1"
b100000000000000001101 H
b10000000000000000110100 0
b10000000000000000110100 !
1"
17
#140
0"
07
#145
b1101 a
b1101 C
b1101 b
b1101 |
b1101 }
b1101 6
b1101 q
b1101 r
b1101 z
b1101 D
b1101 c
b1101 #"
b1101 %"
b110100000100000 M
b1100 `
b1101 =
b1101 ""
b1100 >
b1100 d
b1100 o
b1100 A
b1100 e
b110100000100000 8
b110100000100000 j
b100000000000000001111 <
b100000000000000001111 F
b100000000000000001111 Q
b1100000010110100000100000 9
b1100000010110100000100000 U
b1100000010110100000100000 \
b100000000000000001111 R
b1100000010110100000100000 W
b100000000000000001110 I
b100000110100000101111 3
b100000110100000101111 N
b100000110100000101111 P
b100000000000000001111 2
b100000000000000001111 K
b100000000000000001111 L
b100000000000000001111 O
b100000000000000001110 T
b100000000000000001110 H
b10000000000000000111000 0
b10000000000000000111000 !
b1100 2"
1"
17
#150
0"
07
#155
b1110 a
b1110 C
b1110 b
b1110 |
b1110 }
b1110 6
b1110 q
b1110 r
b1110 z
b1110 D
b1110 c
b1110 #"
b1110 %"
b111000000100000 M
b1101 `
b1110 =
b1110 ""
b1101 >
b1101 d
b1101 o
b1101 A
b1101 e
b111000000100000 8
b111000000100000 j
b100000000000000010000 <
b100000000000000010000 F
b100000000000000010000 Q
b1101000010111000000100000 9
b1101000010111000000100000 U
b1101000010111000000100000 \
b100000000000000010000 R
b1101000010111000000100000 W
b100000000000000001111 I
b100000111000000110000 3
b100000111000000110000 N
b100000111000000110000 P
b100000000000000010000 2
b100000000000000010000 K
b100000000000000010000 L
b100000000000000010000 O
b100000000000000001111 T
b1101 3"
b100000000000000001111 H
b10000000000000000111100 0
b10000000000000000111100 !
1"
17
#160
0"
07
#165
b1111 a
b1111 C
b1111 b
b1111 |
b1111 }
b1111 6
b1111 q
b1111 r
b1111 z
b1111 D
b1111 c
b1111 #"
b1111 %"
b111100000100000 M
b1110 `
b1111 =
b1111 ""
b1110 >
b1110 d
b1110 o
b1110 A
b1110 e
b111100000100000 8
b111100000100000 j
b100000000000000010001 <
b100000000000000010001 F
b100000000000000010001 Q
b1110000010111100000100000 9
b1110000010111100000100000 U
b1110000010111100000100000 \
b100000000000000010001 R
b1110000010111100000100000 W
b100000000000000010000 I
b100000111100000110001 3
b100000111100000110001 N
b100000111100000110001 P
b100000000000000010001 2
b100000000000000010001 K
b100000000000000010001 L
b100000000000000010001 O
b100000000000000010000 T
b100000000000000010000 H
b10000000000000001000000 0
b10000000000000001000000 !
b1110 4"
1"
17
#170
0"
07
#175
b100 v
b10000 a
b10000 C
b10000 b
b10000 |
b10000 }
b10000 6
b10000 q
b10000 r
b10000 z
b10000 D
b10000 c
b10000 #"
b10000 %"
b111111111111111000000000100000 M
b1111 `
b10000 =
b10000 ""
b1111 >
b1111 d
b1111 o
b1111 A
b1111 e
b11111111111111111000000000100000 8
b11111111111111111000000000100000 j
b100000000000000010010 <
b100000000000000010010 F
b100000000000000010010 Q
b1111000011000000000100000 9
b1111000011000000000100000 U
b1111000011000000000100000 \
b100000000000000010010 R
b1111000011000000000100000 W
b100000000000000010001 I
b11111000000000110010 3
b11111000000000110010 N
b11111000000000110010 P
b100000000000000010010 2
b100000000000000010010 K
b100000000000000010010 L
b100000000000000010010 O
b100000000000000010001 T
b1111 5"
b100000000000000010001 H
b10000000000000001000100 0
b10000000000000001000100 !
1"
17
#180
0"
07
